<?xml version="1.0" encoding="UTF-8" standalone="no"?>
<svg
   xmlns:dc="http://purl.org/dc/elements/1.1/"
   xmlns:cc="http://creativecommons.org/ns#"
   xmlns:rdf="http://www.w3.org/1999/02/22-rdf-syntax-ns#"
   xmlns:svg="http://www.w3.org/2000/svg"
   xmlns="http://www.w3.org/2000/svg"
   xmlns:sodipodi="http://sodipodi.sourceforge.net/DTD/sodipodi-0.dtd"
   xmlns:inkscape="http://www.inkscape.org/namespaces/inkscape"
   version="1.1"
   id="Capa_1"
   x="0px"
   y="0px"
   viewBox="0 0 64 64"
   xml:space="preserve"
   sodipodi:docname="pkg.svg"
   width="64"
   height="64"
   inkscape:version="1.0.2-2 (e86c870879, 2021-01-15)"><metadata
   id="metadata73"><rdf:RDF><cc:Work
       rdf:about=""><dc:format>image/svg+xml</dc:format><dc:type
         rdf:resource="http://purl.org/dc/dcmitype/StillImage" /><dc:title /></cc:Work></rdf:RDF></metadata><defs
   id="defs71" /><sodipodi:namedview
   pagecolor="#ffffff"
   bordercolor="#666666"
   borderopacity="1"
   objecttolerance="10"
   gridtolerance="10"
   guidetolerance="10"
   inkscape:pageopacity="0"
   inkscape:pageshadow="2"
   inkscape:window-width="3840"
   inkscape:window-height="1137"
   id="namedview69"
   showgrid="false"
   inkscape:zoom="3.7890625"
   inkscape:cx="243.84675"
   inkscape:cy="76.040132"
   inkscape:window-x="-8"
   inkscape:window-y="-8"
   inkscape:window-maximized="1"
   inkscape:current-layer="Capa_1"
   inkscape:document-rotation="0" />
<g
   id="g6"
   transform="matrix(0.10987913,0,0,0.11105568,4.1898846,3.1220761)"
   style="fill:#e9ddaf">
	<g
   id="g4"
   style="fill:#e9ddaf">
		<path
   d="m 498.791,161.127 c -17.545,-17.546 -46.094,-17.545 -63.645,0.004 -5.398,5.403 -39.863,39.896 -45.128,45.166 V 87.426 c 0,-12.02 -4.681,-23.32 -13.181,-31.819 L 334.412,13.18 C 325.913,4.68 314.612,0 302.592,0 H 45.018 c -24.813,0 -45,20.187 -45,45 v 422 c 0,24.813 20.187,45 45,45 h 300 c 24.813,0 45,-20.187 45,-45 V 333.631 L 498.79,224.767 c 17.587,-17.586 17.591,-46.052 10e-4,-63.64 z M 300.019,30 c 2.834,0 8.295,-0.491 13.18,4.393 l 42.426,42.427 c 4.76,4.761 4.394,9.978 4.394,13.18 h -60 z m 59.999,437 c 0,8.271 -6.728,15 -15,15 h -300 c -8.271,0 -15,-6.729 -15,-15 V 45 c 0,-8.271 6.729,-15 15,-15 h 225 v 75 c 0,8.284 6.716,15 15,15 h 75 v 116.323 c 0,0 -44.254,44.292 -44.256,44.293 l -21.203,21.204 c -1.646,1.646 -2.888,3.654 -3.624,5.863 l -21.214,63.64 c -1.797,5.39 -0.394,11.333 3.624,15.35 4.023,4.023 9.968,5.419 15.35,3.624 l 63.64,-21.213 c 2.209,-0.736 4.217,-1.977 5.863,-3.624 l 1.82,-1.82 z m -33.64,-154.573 21.213,21.213 -8.103,8.103 -31.819,10.606 10.606,-31.82 z m 42.422,-0.005 -21.213,-21.213 c 11.296,-11.305 61.465,-61.517 72.105,-72.166 l 21.213,21.213 z M 477.573,203.558 462.11,219.034 440.897,197.821 456.365,182.34 c 5.852,-5.849 15.366,-5.848 21.214,0 5.847,5.85 5.878,15.333 -0.006,21.218 z"
   id="path2"
   style="fill:#e9ddaf" />
	</g>
</g>
<g
   id="g12"
   transform="matrix(0.10987913,0,0,0.11105568,4.1898846,3.1220761)"
   style="fill:#e9ddaf">
	<g
   id="g10"
   style="fill:#e9ddaf">
		<path
   d="m 285.018,150 h -210 c -8.284,0 -15,6.716 -15,15 0,8.284 6.716,15 15,15 h 210 c 8.284,0 15,-6.716 15,-15 0,-8.284 -6.716,-15 -15,-15 z"
   id="path8"
   style="fill:#e9ddaf" />
	</g>
</g>
<g
   id="g18"
   transform="matrix(0.10987913,0,0,0.11105568,4.1898846,3.1220761)"
   style="fill:#e9ddaf">
	<g
   id="g16"
   style="fill:#e9ddaf">
		<path
   d="m 225.018,210 h -150 c -8.284,0 -15,6.716 -15,15 0,8.284 6.716,15 15,15 h 150 c 8.284,0 15,-6.716 15,-15 0,-8.284 -6.716,-15 -15,-15 z"
   id="path14"
   style="fill:#e9ddaf" />
	</g>
</g>
<g
   id="g24"
   transform="matrix(0.10987913,0,0,0.11105568,4.1898846,3.1220761)"
   style="fill:#e9ddaf">
	<g
   id="g22"
   style="fill:#e9ddaf">
		<path
   d="m 225.018,270 h -150 c -8.284,0 -15,6.716 -15,15 0,8.284 6.716,15 15,15 h 150 c 8.284,0 15,-6.716 15,-15 0,-8.284 -6.716,-15 -15,-15 z"
   id="path20"
   style="fill:#e9ddaf" />
	</g>
</g>
<g
   id="g30"
   transform="matrix(0.10987913,0,0,0.11105568,4.1898846,3.1220761)"
   style="fill:#e9ddaf">
	<g
   id="g28"
   style="fill:#e9ddaf">
		<path
   d="m 225.018,330 h -150 c -8.284,0 -15,6.716 -15,15 0,8.284 6.716,15 15,15 h 150 c 8.284,0 15,-6.716 15,-15 0,-8.284 -6.716,-15 -15,-15 z"
   id="path26"
   style="fill:#e9ddaf" />
	</g>
</g>
<g
   id="g36"
   transform="matrix(0.10987913,0,0,0.11105568,4.1898846,3.1220761)"
   style="fill:#e9ddaf">
	<g
   id="g34"
   style="fill:#e9ddaf">
		<path
   d="m 285.018,422 h -90 c -8.284,0 -15,6.716 -15,15 0,8.284 6.716,15 15,15 h 90 c 8.284,0 15,-6.716 15,-15 0,-8.284 -6.716,-15 -15,-15 z"
   id="path32"
   style="fill:#e9ddaf" />
	</g>
</g>
<g
   id="g38"
   transform="matrix(0.10987913,0,0,0.11105568,4.1898846,3.1220761)"
   style="fill:#e9ddaf">
</g>
<g
   id="g40"
   transform="matrix(0.10987913,0,0,0.11105568,4.1898846,3.1220761)"
   style="fill:#e9ddaf">
</g>
<g
   id="g42"
   transform="matrix(0.10987913,0,0,0.11105568,4.1898846,3.1220761)"
   style="fill:#e9ddaf">
</g>
<g
   id="g44"
   transform="matrix(0.10987913,0,0,0.11105568,4.1898846,3.1220761)"
   style="fill:#e9ddaf">
</g>
<g
   id="g46"
   transform="matrix(0.10987913,0,0,0.11105568,4.1898846,3.1220761)"
   style="fill:#e9ddaf">
</g>
<g
   id="g48"
   transform="matrix(0.10987913,0,0,0.11105568,4.1898846,3.1220761)"
   style="fill:#e9ddaf">
</g>
<g
   id="g50"
   transform="matrix(0.10987913,0,0,0.11105568,4.1898846,3.1220761)"
   style="fill:#e9ddaf">
</g>
<g
   id="g52"
   transform="matrix(0.10987913,0,0,0.11105568,4.1898846,3.1220761)"
   style="fill:#e9ddaf">
</g>
<g
   id="g54"
   transform="matrix(0.10987913,0,0,0.11105568,4.1898846,3.1220761)"
   style="fill:#e9ddaf">
</g>
<g
   id="g56"
   transform="matrix(0.10987913,0,0,0.11105568,4.1898846,3.1220761)"
   style="fill:#e9ddaf">
</g>
<g
   id="g58"
   transform="matrix(0.10987913,0,0,0.11105568,4.1898846,3.1220761)"
   style="fill:#e9ddaf">
</g>
<g
   id="g60"
   transform="matrix(0.10987913,0,0,0.11105568,4.1898846,3.1220761)"
   style="fill:#e9ddaf">
</g>
<g
   id="g62"
   transform="matrix(0.10987913,0,0,0.11105568,4.1898846,3.1220761)"
   style="fill:#e9ddaf">
</g>
<g
   id="g64"
   transform="matrix(0.10987913,0,0,0.11105568,4.1898846,3.1220761)"
   style="fill:#e9ddaf">
</g>
<g
   id="g66"
   transform="matrix(0.10987913,0,0,0.11105568,4.1898846,3.1220761)"
   style="fill:#e9ddaf">
</g>
</svg>
